\relax 
\@writefile{toc}{\contentsline {section}{\numberline {I}Introduction}{2}{}\protected@file@percent }
\newlabel{sec:introduction}{{I}{2}}
\@writefile{toc}{\contentsline {subsection}{\numberline {\mbox  {I-A}}Abbreviations and Acronyms}{2}{}\protected@file@percent }
\@writefile{toc}{\contentsline {subsection}{\numberline {\mbox  {I-B}}Other Recommendations}{2}{}\protected@file@percent }
\@writefile{toc}{\contentsline {subsection}{\numberline {\mbox  {I-C}}Equations}{3}{}\protected@file@percent }
\newlabel{eq}{{1}{3}}
\@writefile{toc}{\contentsline {subsection}{\numberline {\mbox  {I-D}}\LaTeX  -Specific Advice}{3}{}\protected@file@percent }
\@writefile{toc}{\contentsline {section}{\numberline {II}Units}{3}{}\protected@file@percent }
\@writefile{toc}{\contentsline {section}{\numberline {III}Some Common Mistakes}{3}{}\protected@file@percent }
\@writefile{toc}{\contentsline {section}{\numberline {IV}Guidelines for Graphics Preparation and Submission}{3}{}\protected@file@percent }
\newlabel{sec:guidelines}{{IV}{3}}
