\relax 
\@writefile{toc}{\boolfalse {citerequest}\boolfalse {citetracker}\boolfalse {pagetracker}\boolfalse {backtracker}\relax }
\@writefile{lof}{\boolfalse {citerequest}\boolfalse {citetracker}\boolfalse {pagetracker}\boolfalse {backtracker}\relax }
\@writefile{lot}{\boolfalse {citerequest}\boolfalse {citetracker}\boolfalse {pagetracker}\boolfalse {backtracker}\relax }
\abx@aux@refcontext{nty/global//global/global}
\abx@aux@cite{zhang2020}
\abx@aux@segm{0}{0}{zhang2020}
\abx@aux@cite{zhang2020}
\abx@aux@segm{0}{0}{zhang2020}
\abx@aux@cite{ali2019}
\abx@aux@segm{0}{0}{ali2019}
\abx@aux@cite{ali2019}
\abx@aux@segm{0}{0}{ali2019}
\abx@aux@cite{algarin2017}
\abx@aux@segm{0}{0}{algarin2017}
\abx@aux@cite{algarin2017}
\abx@aux@segm{0}{0}{algarin2017}
\abx@aux@cite{pacco2022}
\abx@aux@segm{0}{0}{pacco2022}
\abx@aux@cite{pacco2022}
\abx@aux@segm{0}{0}{pacco2022}
\abx@aux@cite{amaraillo2018}
\abx@aux@segm{0}{0}{amaraillo2018}
\abx@aux@cite{amaraillo2018}
\abx@aux@segm{0}{0}{amaraillo2018}
\abx@aux@cite{zhang2020}
\abx@aux@segm{0}{0}{zhang2020}
\abx@aux@cite{zhang2020}
\abx@aux@segm{0}{0}{zhang2020}
\@writefile{toc}{\defcounter {refsection}{0}\relax }\@writefile{toc}{\contentsline {section}{\numberline {I}Introduction}{1}{}\protected@file@percent }
\newlabel{sec:introduction}{{I}{1}}
\abx@aux@cite{teruel2010}
\abx@aux@segm{0}{0}{teruel2010}
\abx@aux@cite{teruel2010}
\abx@aux@segm{0}{0}{teruel2010}
\abx@aux@cite{algarin2017}
\abx@aux@segm{0}{0}{algarin2017}
\abx@aux@cite{algarin2017}
\abx@aux@segm{0}{0}{algarin2017}
\abx@aux@cite{pacco2022}
\abx@aux@segm{0}{0}{pacco2022}
\abx@aux@cite{pacco2022}
\abx@aux@segm{0}{0}{pacco2022}
\abx@aux@cite{zhang2020}
\abx@aux@segm{0}{0}{zhang2020}
\abx@aux@cite{zhang2020}
\abx@aux@segm{0}{0}{zhang2020}
\abx@aux@cite{ali2019}
\abx@aux@segm{0}{0}{ali2019}
\abx@aux@cite{ali2019}
\abx@aux@segm{0}{0}{ali2019}
\abx@aux@cite{ali2019}
\abx@aux@segm{0}{0}{ali2019}
\abx@aux@cite{ali2019}
\abx@aux@segm{0}{0}{ali2019}
\abx@aux@cite{yaofeng2017}
\abx@aux@segm{0}{0}{yaofeng2017}
\abx@aux@cite{yaofeng2017}
\abx@aux@segm{0}{0}{yaofeng2017}
\abx@aux@cite{ali2019}
\abx@aux@segm{0}{0}{ali2019}
\abx@aux@cite{ali2019}
\abx@aux@segm{0}{0}{ali2019}
\abx@aux@cite{yaofeng2017}
\abx@aux@segm{0}{0}{yaofeng2017}
\abx@aux@cite{yaofeng2017}
\abx@aux@segm{0}{0}{yaofeng2017}
\@writefile{toc}{\defcounter {refsection}{0}\relax }\@writefile{toc}{\contentsline {section}{\numberline {II}State Of The Art}{2}{}\protected@file@percent }
\abx@aux@cite{pacco2022}
\abx@aux@segm{0}{0}{pacco2022}
\abx@aux@cite{pacco2022}
\abx@aux@segm{0}{0}{pacco2022}
\abx@aux@cite{algarin2017}
\abx@aux@segm{0}{0}{algarin2017}
\abx@aux@cite{algarin2017}
\abx@aux@segm{0}{0}{algarin2017}
\abx@aux@cite{mandany2017}
\abx@aux@segm{0}{0}{mandany2017}
\abx@aux@cite{chen2011}
\abx@aux@segm{0}{0}{chen2011}
\abx@aux@cite{chen2011}
\abx@aux@segm{0}{0}{chen2011}
\abx@aux@cite{teruel2010}
\abx@aux@segm{0}{0}{teruel2010}
\abx@aux@cite{teruel2010}
\abx@aux@segm{0}{0}{teruel2010}
\abx@aux@cite{test}
\abx@aux@segm{0}{0}{test}
\abx@aux@cite{test}
\abx@aux@segm{0}{0}{test}
\abx@aux@cite{teruel2010}
\abx@aux@segm{0}{0}{teruel2010}
\abx@aux@cite{teruel2010}
\abx@aux@segm{0}{0}{teruel2010}
\abx@aux@cite{teruel2010}
\abx@aux@segm{0}{0}{teruel2010}
\abx@aux@cite{teruel2010}
\abx@aux@segm{0}{0}{teruel2010}
\abx@aux@cite{chen2022}
\abx@aux@segm{0}{0}{chen2022}
\abx@aux@cite{chen2022}
\abx@aux@segm{0}{0}{chen2022}
\abx@aux@cite{test}
\abx@aux@segm{0}{0}{test}
\abx@aux@cite{test}
\abx@aux@segm{0}{0}{test}
\abx@aux@cite{teruel2010}
\abx@aux@segm{0}{0}{teruel2010}
\abx@aux@cite{teruel2010}
\abx@aux@segm{0}{0}{teruel2010}
\abx@aux@cite{chen2022}
\abx@aux@segm{0}{0}{chen2022}
\abx@aux@cite{chen2022}
\abx@aux@segm{0}{0}{chen2022}
\abx@aux@cite{test}
\abx@aux@segm{0}{0}{test}
\abx@aux@cite{test}
\abx@aux@segm{0}{0}{test}
\abx@aux@cite{chen2022}
\abx@aux@segm{0}{0}{chen2022}
\abx@aux@cite{chen2022}
\abx@aux@segm{0}{0}{chen2022}
\@writefile{toc}{\defcounter {refsection}{0}\relax }\@writefile{toc}{\contentsline {section}{\numberline {III} Theoretical Background }{3}{}\protected@file@percent }
\@writefile{toc}{\defcounter {refsection}{0}\relax }\@writefile{toc}{\contentsline {subsection}{\numberline {\mbox  {III-A}} Microclimatic variables }{3}{}\protected@file@percent }
\abx@aux@cite{algarin2017}
\abx@aux@segm{0}{0}{algarin2017}
\abx@aux@cite{algarin2017}
\abx@aux@segm{0}{0}{algarin2017}
\abx@aux@cite{pacco2022}
\abx@aux@segm{0}{0}{pacco2022}
\abx@aux@cite{pacco2022}
\abx@aux@segm{0}{0}{pacco2022}
\abx@aux@cite{madany2017}
\abx@aux@segm{0}{0}{madany2017}
\abx@aux@cite{madany2017}
\abx@aux@segm{0}{0}{madany2017}
\abx@aux@cite{sabri2012}
\abx@aux@segm{0}{0}{sabri2012}
\abx@aux@cite{sabri2012}
\abx@aux@segm{0}{0}{sabri2012}
\abx@aux@cite{pacco2022}
\abx@aux@segm{0}{0}{pacco2022}
\abx@aux@cite{pacco2022}
\abx@aux@segm{0}{0}{pacco2022}
\abx@aux@cite{sabri2012}
\abx@aux@segm{0}{0}{sabri2012}
\abx@aux@cite{sabri2012}
\abx@aux@segm{0}{0}{sabri2012}
\abx@aux@cite{algarin2017}
\abx@aux@segm{0}{0}{algarin2017}
\abx@aux@cite{algarin2017}
\abx@aux@segm{0}{0}{algarin2017}
\abx@aux@cite{sabri2012}
\abx@aux@segm{0}{0}{sabri2012}
\abx@aux@cite{sabri2012}
\abx@aux@segm{0}{0}{sabri2012}
\abx@aux@cite{iddio2020}
\abx@aux@segm{0}{0}{iddio2020}
\abx@aux@cite{iddio2020}
\abx@aux@segm{0}{0}{iddio2020}
\abx@aux@cite{cao2022}
\abx@aux@segm{0}{0}{cao2022}
\abx@aux@cite{cao2022}
\abx@aux@segm{0}{0}{cao2022}
\abx@aux@cite{ali2020}
\abx@aux@segm{0}{0}{ali2020}
\abx@aux@cite{ali2020}
\abx@aux@segm{0}{0}{ali2020}
\abx@aux@cite{liu2020}
\abx@aux@segm{0}{0}{liu2020}
\abx@aux@cite{liu2020}
\abx@aux@segm{0}{0}{liu2020}
\abx@aux@cite{amaraillo2018}
\abx@aux@segm{0}{0}{amaraillo2018}
\abx@aux@cite{amaraillo2018}
\abx@aux@segm{0}{0}{amaraillo2018}
\@writefile{toc}{\defcounter {refsection}{0}\relax }\@writefile{toc}{\contentsline {subsection}{\numberline {\mbox  {III-B}} Fuzzy controller }{4}{}\protected@file@percent }
\@writefile{toc}{\defcounter {refsection}{0}\relax }\@writefile{toc}{\contentsline {subsection}{\numberline {\mbox  {III-C}}Internet of Things - IoT }{4}{}\protected@file@percent }
\@writefile{toc}{\defcounter {refsection}{0}\relax }\@writefile{toc}{\contentsline {section}{\numberline {IV} Development }{4}{}\protected@file@percent }
\@writefile{lof}{\defcounter {refsection}{0}\relax }\@writefile{lof}{\contentsline {figure}{\numberline {1}{\ignorespaces Greenhouse constructed at Santa Rosa do Sul, Santa Catarina.}}{5}{}\protected@file@percent }
\newlabel{fig1}{{1}{5}}
\@writefile{toc}{\defcounter {refsection}{0}\relax }\@writefile{toc}{\contentsline {subsection}{\numberline {\mbox  {IV-A}} Low-Level systems }{5}{}\protected@file@percent }
\@writefile{lot}{\defcounter {refsection}{0}\relax }\@writefile{lot}{\contentsline {table}{\numberline {1}{\ignorespaces Processing units}}{5}{}\protected@file@percent }
\newlabel{table1}{{1}{5}}
\newlabel{tab1}{{1}{5}}
\@writefile{lof}{\defcounter {refsection}{0}\relax }\@writefile{lof}{\contentsline {figure}{\numberline {2}{\ignorespaces Electronics panel.}}{5}{}\protected@file@percent }
\newlabel{fig2}{{2}{5}}
\@writefile{lot}{\defcounter {refsection}{0}\relax }\@writefile{lot}{\contentsline {table}{\numberline {2}{\ignorespaces Actuators}}{5}{}\protected@file@percent }
\newlabel{table2}{{2}{5}}
\newlabel{tab2}{{2}{5}}
\@writefile{lof}{\defcounter {refsection}{0}\relax }\@writefile{lof}{\contentsline {figure}{\numberline {3}{\ignorespaces Humid wall seen from the inside.}}{6}{}\protected@file@percent }
\newlabel{fig3}{{3}{6}}
\@writefile{lof}{\defcounter {refsection}{0}\relax }\@writefile{lof}{\contentsline {figure}{\numberline {4}{\ignorespaces Humid wall seen from the outside.}}{6}{}\protected@file@percent }
\newlabel{fig4}{{4}{6}}
\@writefile{lof}{\defcounter {refsection}{0}\relax }\@writefile{lof}{\contentsline {figure}{\numberline {5}{\ignorespaces Distributed Raspberry Pi system.}}{6}{}\protected@file@percent }
\newlabel{fig5}{{5}{6}}
\@writefile{toc}{\defcounter {refsection}{0}\relax }\@writefile{toc}{\contentsline {subsection}{\numberline {\mbox  {IV-B}} High level system }{6}{}\protected@file@percent }
\@writefile{lof}{\defcounter {refsection}{0}\relax }\@writefile{lof}{\contentsline {figure}{\numberline {6}{\ignorespaces Web application frontend.}}{7}{}\protected@file@percent }
\newlabel{fig6}{{6}{7}}
\@writefile{toc}{\defcounter {refsection}{0}\relax }\@writefile{toc}{\contentsline {subsection}{\numberline {\mbox  {IV-C}}Fuzzy Controller}{7}{}\protected@file@percent }
\@writefile{lof}{\defcounter {refsection}{0}\relax }\@writefile{lof}{\contentsline {figure}{\numberline {7}{\ignorespaces Python code defining the rules.}}{7}{}\protected@file@percent }
\newlabel{fig7}{{7}{7}}
\@writefile{lof}{\defcounter {refsection}{0}\relax }\@writefile{lof}{\contentsline {figure}{\numberline {8}{\ignorespaces Pre acclimatization internal temperature universe.}}{8}{}\protected@file@percent }
\newlabel{fig8}{{8}{8}}
\@writefile{lof}{\defcounter {refsection}{0}\relax }\@writefile{lof}{\contentsline {figure}{\numberline {9}{\ignorespaces Pre acclimatization external temperature universe.}}{8}{}\protected@file@percent }
\newlabel{fig9}{{9}{8}}
\@writefile{lof}{\defcounter {refsection}{0}\relax }\@writefile{lof}{\contentsline {figure}{\numberline {10}{\ignorespaces Acclimatization internal temperature universe.}}{8}{}\protected@file@percent }
\newlabel{fig10}{{10}{8}}
\@writefile{lof}{\defcounter {refsection}{0}\relax }\@writefile{lof}{\contentsline {figure}{\numberline {11}{\ignorespaces Acclimatization external temperature universe.}}{8}{}\protected@file@percent }
\newlabel{fig11}{{11}{8}}
\@writefile{lof}{\defcounter {refsection}{0}\relax }\@writefile{lof}{\contentsline {figure}{\numberline {12}{\ignorespaces Wind speed universe.}}{8}{}\protected@file@percent }
\newlabel{fig12}{{12}{8}}
\@writefile{lof}{\defcounter {refsection}{0}\relax }\@writefile{lof}{\contentsline {figure}{\numberline {13}{\ignorespaces Consequent's percentage for "cooling".}}{9}{}\protected@file@percent }
\newlabel{fig13}{{13}{9}}
\@writefile{lof}{\defcounter {refsection}{0}\relax }\@writefile{lof}{\contentsline {figure}{\numberline {14}{\ignorespaces Consequent's percentage for "heating".}}{9}{}\protected@file@percent }
\newlabel{fig14}{{14}{9}}
\@writefile{toc}{\defcounter {refsection}{0}\relax }\@writefile{toc}{\contentsline {section}{\numberline {V}Results}{9}{}\protected@file@percent }
\@writefile{lof}{\defcounter {refsection}{0}\relax }\@writefile{lof}{\contentsline {figure}{\numberline {15}{\ignorespaces Twenty four hour test with the fuzzy controller operating.}}{9}{}\protected@file@percent }
\newlabel{fig15}{{15}{9}}
\@writefile{toc}{\defcounter {refsection}{0}\relax }\@writefile{toc}{\contentsline {section}{\numberline {VI} Conclusion }{9}{}\protected@file@percent }
\abx@aux@read@bbl@mdfivesum{802E86743D18623142756C1B2C3C758D}
\abx@aux@defaultrefcontext{0}{ali2020}{nty/global//global/global}
\abx@aux@defaultrefcontext{0}{ali2019}{nty/global//global/global}
\abx@aux@defaultrefcontext{0}{madany2017}{nty/global//global/global}
\abx@aux@defaultrefcontext{0}{cao2022}{nty/global//global/global}
\abx@aux@defaultrefcontext{0}{chen2011}{nty/global//global/global}
\abx@aux@defaultrefcontext{0}{chen2022}{nty/global//global/global}
\abx@aux@defaultrefcontext{0}{amaraillo2018}{nty/global//global/global}
\abx@aux@defaultrefcontext{0}{yaofeng2017}{nty/global//global/global}
\abx@aux@defaultrefcontext{0}{iddio2020}{nty/global//global/global}
\abx@aux@defaultrefcontext{0}{test}{nty/global//global/global}
\abx@aux@defaultrefcontext{0}{liu2020}{nty/global//global/global}
\abx@aux@defaultrefcontext{0}{pacco2022}{nty/global//global/global}
\abx@aux@defaultrefcontext{0}{algarin2017}{nty/global//global/global}
\abx@aux@defaultrefcontext{0}{sabri2012}{nty/global//global/global}
\abx@aux@defaultrefcontext{0}{teruel2010}{nty/global//global/global}
\abx@aux@defaultrefcontext{0}{zhang2020}{nty/global//global/global}
\@writefile{toc}{\defcounter {refsection}{0}\relax }\@writefile{toc}{\contentsline {subsection}{Bruno Gabriel da Fonseca}{11}{}\protected@file@percent }
\@writefile{toc}{\defcounter {refsection}{0}\relax }\@writefile{toc}{\contentsline {subsection}{Roderval Marcelino}{11}{}\protected@file@percent }
\gdef \@abspage@last{11}
