\relax 
\@writefile{toc}{\contentsline {section}{\numberline {I}Introduction}{2}{}\protected@file@percent }
\newlabel{sec:introduction}{{I}{2}}
\@writefile{toc}{\contentsline {subsection}{\numberline {\mbox  {I-A}}Abbreviations and Acronyms}{2}{}\protected@file@percent }
\@writefile{toc}{\contentsline {subsection}{\numberline {\mbox  {I-B}}Other Recommendations}{2}{}\protected@file@percent }
\@writefile{toc}{\contentsline {subsection}{\numberline {\mbox  {I-C}}Equations}{3}{}\protected@file@percent }
\newlabel{eq}{{1}{3}}
\@writefile{toc}{\contentsline {subsection}{\numberline {\mbox  {I-D}}\LaTeX  -Specific Advice}{3}{}\protected@file@percent }
\@writefile{toc}{\contentsline {section}{\numberline {II}Units}{3}{}\protected@file@percent }
\@writefile{toc}{\contentsline {section}{\numberline {III}Some Common Mistakes}{3}{}\protected@file@percent }
\@writefile{toc}{\contentsline {section}{\numberline {IV}Guidelines for Graphics Preparation and Submission}{3}{}\protected@file@percent }
\newlabel{sec:guidelines}{{IV}{3}}
\@writefile{lof}{\contentsline {figure}{\numberline {1}{\ignorespaces Magnetization as a function of applied field. It is good practice to explain the significance of the figure in the caption.}}{4}{}\protected@file@percent }
\newlabel{fig1}{{1}{4}}
\@writefile{toc}{\contentsline {subsection}{\numberline {\mbox  {IV-A}}Types of Graphics}{4}{}\protected@file@percent }
\@writefile{toc}{\contentsline {subsubsection}{\numberline {\mbox  {IV-A}1}Color/Grayscale figures}{4}{}\protected@file@percent }
\@writefile{toc}{\contentsline {subsubsection}{\numberline {\mbox  {IV-A}2}Line Art figures}{4}{}\protected@file@percent }
\@writefile{toc}{\contentsline {subsubsection}{\numberline {\mbox  {IV-A}3}Author photos}{4}{}\protected@file@percent }
\@writefile{toc}{\contentsline {subsubsection}{\numberline {\mbox  {IV-A}4}Tables}{4}{}\protected@file@percent }
\@writefile{toc}{\contentsline {subsection}{\numberline {\mbox  {IV-B}}Multipart figures}{4}{}\protected@file@percent }
\@writefile{toc}{\contentsline {subsection}{\numberline {\mbox  {IV-C}}File Formats For Graphics}{4}{}\protected@file@percent }
\newlabel{formats}{{\mbox  {IV-C}}{4}}
\@writefile{lot}{\contentsline {table}{\numberline {1}{\ignorespaces Units for Magnetic Properties}}{4}{}\protected@file@percent }
\newlabel{table}{{1}{4}}
\newlabel{tab1}{{1}{4}}
\@writefile{toc}{\contentsline {subsection}{\numberline {\mbox  {IV-D}}Sizing of Graphics}{4}{}\protected@file@percent }
\@writefile{toc}{\contentsline {subsection}{\numberline {\mbox  {IV-E}}Resolution }{5}{}\protected@file@percent }
\@writefile{toc}{\contentsline {subsection}{\numberline {\mbox  {IV-F}}Vector Art}{5}{}\protected@file@percent }
\@writefile{toc}{\contentsline {subsection}{\numberline {\mbox  {IV-G}}Color Space}{5}{}\protected@file@percent }
\@writefile{toc}{\contentsline {subsection}{\numberline {\mbox  {IV-H}}Accepted Fonts Within Figures}{5}{}\protected@file@percent }
\@writefile{toc}{\contentsline {subsection}{\numberline {\mbox  {IV-I}}Using Labels Within Figures}{5}{}\protected@file@percent }
\@writefile{toc}{\contentsline {subsubsection}{\numberline {\mbox  {IV-I}1}Figure Axis labels }{5}{}\protected@file@percent }
\@writefile{toc}{\contentsline {subsubsection}{\numberline {\mbox  {IV-I}2}Subfigure Labels in Multipart Figures and Tables}{5}{}\protected@file@percent }
\@writefile{toc}{\contentsline {subsection}{\numberline {\mbox  {IV-J}}File Naming}{5}{}\protected@file@percent }
\@writefile{toc}{\contentsline {subsection}{\numberline {\mbox  {IV-K}}Referencing a Figure or Table Within Your Paper}{5}{}\protected@file@percent }
\@writefile{toc}{\contentsline {subsection}{\numberline {\mbox  {IV-L}}Checking Your Figures: The IEEE Graphics Analyzer}{5}{}\protected@file@percent }
\@writefile{toc}{\contentsline {subsection}{\numberline {\mbox  {IV-M}}Submitting Your Graphics}{5}{}\protected@file@percent }
\@writefile{toc}{\contentsline {subsection}{\numberline {\mbox  {IV-N}}Color Processing/Printing in IEEE Journals}{6}{}\protected@file@percent }
\@writefile{toc}{\contentsline {section}{\numberline {V}Conclusion}{6}{}\protected@file@percent }
\@writefile{toc}{\contentsline {subsection}{\numberline {\mbox  {-A}}References}{6}{}\protected@file@percent }
\@writefile{toc}{\contentsline {subsection}{\numberline {\mbox  {-B}}Footnotes}{6}{}\protected@file@percent }
\@writefile{toc}{\contentsline {section}{\numberline {A}Submitting Your Paper for Review}{6}{}\protected@file@percent }
\@writefile{toc}{\contentsline {subsection}{\numberline {\mbox  {A-A}}Final Stage}{6}{}\protected@file@percent }
\@writefile{toc}{\contentsline {subsection}{\numberline {\mbox  {A-B}}Review Stage Using ScholarOne\textregistered \ Manuscripts}{6}{}\protected@file@percent }
\citation{b1,b2}
\@writefile{toc}{\contentsline {subsection}{\numberline {\mbox  {A-C}}Final Stage Using ScholarOne Manuscripts}{7}{}\protected@file@percent }
\@writefile{toc}{\contentsline {subsection}{\numberline {\mbox  {A-D}}Copyright Form}{7}{}\protected@file@percent }
\@writefile{toc}{\contentsline {section}{\numberline {B}IEEE Publishing Policy}{7}{}\protected@file@percent }
\@writefile{toc}{\contentsline {section}{\numberline {C}Publication Principles}{7}{}\protected@file@percent }
\citation{b3}
\citation{b5}
\citation{b6,b7}
\citation{b8,b9}
\citation{b14}
\citation{b16}
\citation{b17}
\citation{b18,b19}
\citation{b20}
\citation{b21}
\citation{b22}
\citation{b23}
\citation{b24}
\citation{b25,b26}
\citation{b27}
\citation{b29}
\citation{b30,b31}
\citation{b32,b33}
\citation{b34}
\bibcite{b1}{1}
\bibcite{b2}{2}
\bibcite{b3}{3}
\bibcite{b4}{4}
\bibcite{b5}{5}
\bibcite{b6}{6}
\bibcite{b7}{7}
\bibcite{b8}{8}
\bibcite{b9}{9}
\bibcite{b10}{10}
\bibcite{b11}{11}
\bibcite{b12}{12}
\bibcite{b13}{13}
\bibcite{b14}{14}
\bibcite{b15}{15}
\@writefile{toc}{\contentsline {section}{\numberline {D}Reference Examples}{8}{}\protected@file@percent }
\@writefile{toc}{\contentsline {section}{REFERENCES}{8}{}\protected@file@percent }
\bibcite{b16}{16}
\bibcite{b17}{17}
\bibcite{b18}{18}
\bibcite{b19}{19}
\bibcite{b20}{20}
\bibcite{b21}{21}
\bibcite{b22}{22}
\bibcite{b23}{23}
\bibcite{b24}{24}
\bibcite{b25}{25}
\bibcite{b26}{26}
\bibcite{b27}{27}
\bibcite{b28}{28}
\bibcite{b29}{29}
\bibcite{b30}{30}
\bibcite{b31}{31}
\bibcite{b32}{32}
\bibcite{b33}{33}
\bibcite{b34}{34}
\@writefile{toc}{\contentsline {subsection}{First A. Author}{9}{}\protected@file@percent }
\@writefile{toc}{\contentsline {subsection}{Second B. Author}{9}{}\protected@file@percent }
\@writefile{toc}{\contentsline {subsection}{Third C. Author, Jr.}{10}{}\protected@file@percent }
\gdef \@abspage@last{10}
